…
## Implan Sector Allocation

Allocating spending to Implan sectors requires a spending table and 2
crosswalk tables. The implan package includes example data to
demonstrate the allocation process:

``` r
library(dplyr)
library(implan)

data(spending) # total hunting spending by item
spending
#> # A tibble: 44 x 3
#>    type  item          spend
#>    <chr> <chr>         <dbl>
#>  1 trip  food      14824024.
#>  2 trip  lodge      3589912.
#>  3 trip  plane       703034.
#>  4 trip  pubtrans    438757.
#>  5 trip  privtrans 17689308.
#>  6 trip  guide      3893594.
#>  7 trip  publand     109853.
#>  8 trip  privland  10726392.
#>  9 trip  heat        610683.
#> 10 trip  rent       1209743.
#> # ... with 34 more rows
```
…
